{"current_page":1,"results_per_page":10,"total_entries":19,"total_pages":2,"next_page":"?page=2&rpp=10","streams":[{"stream":{"challenge":false,"created_at":"2011-10-17T09:50:01Z","featured":false,"photos_count":143,"popular":true,"popular_order":2,"staff_favorite":false,"tag":"","title":"Pizza","trending":false,"updated_at":"2012-01-31T11:17:50Z","users_count":128,"id":"4e9bfa49bbb19f0001000051","original_photo":{"photo":{"caption":"Pizza"}},"from":{"avatar_url":"http://piictu.s3.amazonaws.com/avatars/4e90932687ea71000100032e/90x90_1318098344","bio":"Freedom Football Foods Family & Friends","fullname":"박희진","username":"byeunlove","id":"4e90932687ea71000100032e"},"seq":"2-13280086211307518","photos":[{"photo":{"created_at":"2012-01-31T09:00:13Z","seq":13280004134124668,"url":"http://piictu.s3.amazonaws.com/photos%2F4f27ad9a1ecc9800010000ee%2Foriginal","id":"4f27ad9a1ecc9800010000ee","stream_id":"4e9bfa49bbb19f0001000051","thumbnail":"http://piictu.s3.amazonaws.com/photos%2F4f27ad9a1ecc9800010000ee%2F90x90","stream_title":"Pizza","from":{"avatar_url":"http://cdn.piictu.com/avatars/4ea99af99bfc1f0001000170/90x90_1321783202","bio":"","fullname":"Yani Stroeckx","username":"bdke","id":"4ea99af99bfc1f0001000170"},"type":0}},{"photo":{"created_at":"2012-01-31T07:51:27Z","seq":13279962877706130,"url":"http://piictu.s3.amazonaws.com/photos%2F4f279d7cf1a4da000100000c%2Foriginal","id":"4f279d7cf1a4da000100000c","stream_id":"4e9bfa49bbb19f0001000051","thumbnail":"http://piictu.s3.amazonaws.com/photos%2F4f279d7cf1a4da000100000c%2F90x90","stream_title":"Pizza","from":{"avatar_url":null,"bio":null,"fullname":null,"username":"goatiee","id":"4f18958eee0ee20001000015"},"likes":["4eada5b477a786000100017b"],"type":0}},{"photo":{"caption":"Teeny tiny","created_at":"2012-01-31T07:50:53Z","seq":13279962531107966,"url":"http://piictu.s3.amazonaws.com/photos%2F4f279d5b3646330001000118%2Foriginal","id":"4f279d5b3646330001000118","stream_id":"4e9bfa49bbb19f0001000051","thumbnail":"http://piictu.s3.amazonaws.com/photos%2F4f279d5b3646330001000118%2F90x90","stream_title":"Pizza","from":{"avatar_url":"http://cdn.piictu.com/avatars/4e0ad3bd4c99f8000100110a/90x90_1327963432","bio":"I go click","fullname":"lucy b","username":"lucy_b","id":"4e0ad3bd4c99f8000100110a"},"likes":["4eada5b477a786000100017b","4e8c1f64bcb8b000010001fc"],"type":0}},{"photo":{"created_at":"2012-01-31T07:48:35Z","seq":13279961150661116,"url":"http://piictu.s3.amazonaws.com/photos%2F4f279cd03646330001000117%2Foriginal","id":"4f279cd03646330001000117","stream_id":"4e9bfa49bbb19f0001000051","thumbnail":"http://piictu.s3.amazonaws.com/photos%2F4f279cd03646330001000117%2F90x90","stream_title":"Pizza","from":{"avatar_url":"http://cdn.piictu.com/avatars/4f279a35f185fb0001000025/90x90_1327995602","bio":"","fullname":"","username":"matthiaaa","id":"4f279a35f185fb0001000025"},"likes":["4eada5b477a786000100017b"],"type":0}},{"photo":{"created_at":"2012-01-31T06:01:44Z","seq":13279897043256618,"url":"http://piictu.s3.amazonaws.com/photos%2F4f2783c7be127b0001000065%2Foriginal","id":"4f2783c7be127b0001000065","stream_id":"4e9bfa49bbb19f0001000051","thumbnail":"http://piictu.s3.amazonaws.com/photos%2F4f2783c7be127b0001000065%2F90x90","stream_title":"Pizza","from":{"avatar_url":null,"bio":null,"fullname":"Conor Casey","username":"caseyc17","id":"4dffcc497ae15c0001000db5"},"likes":["4eada5b477a786000100017b","4dfaf27e5c00b40001000a2d","4f12e2136054810001000093"],"type":0}},{"photo":{"caption":"Chicago's finest. ","created_at":"2012-01-31T05:41:06Z","seq":13279884667964942,"url":"http://piictu.s3.amazonaws.com/photos%2F4f277ef098c7bb0001000130%2Foriginal","id":"4f277ef098c7bb0001000130","stream_id":"4e9bfa49bbb19f0001000051","thumbnail":"http://piictu.s3.amazonaws.com/photos%2F4f277ef098c7bb0001000130%2F90x90","stream_title":"Pizza","from":{"avatar_url":"http://cdn.piictu.com/avatars/4dfed8f9bbd0cf0001002144/90x90","bio":"","fullname":"Aggie","username":"johnaguilar","id":"4dfed8f9bbd0cf0001002144"},"likes":["4e45bff137850d0001000202","4e0aea458dbc490001000b41","4eada5b477a786000100017b"],"type":0}},{"photo":{"caption":"Big Lou's in San Antonio","created_at":"2012-01-31T05:40:12Z","seq":13279884128541096,"url":"http://piictu.s3.amazonaws.com/photos%2F4f277eb9eac37a0001000103%2Foriginal","id":"4f277eb9eac37a0001000103","stream_id":"4e9bfa49bbb19f0001000051","thumbnail":"http://piictu.s3.amazonaws.com/photos%2F4f277eb9eac37a0001000103%2F90x90","stream_title":"Pizza","from":{"avatar_url":"http://cdn.piictu.com/avatars/4e092dd11073b20001000993/90x90_1323146976","bio":"Lives in San Antonio, TX","fullname":"Drew Tang Clan","username":"voodoodrew","id":"4e092dd11073b20001000993"},"likes":["4f13c1280009cc000100005c","4e45bff137850d0001000202","4f0789e79d17fa000100007b","4e0a957d8dbc49000100063d","4f11b0bef12389000100007b","4eada5b477a786000100017b","4dfaf27e5c00b40001000a2d","4f12e2136054810001000093","4e6a67dd7402710001000bb8","4e82a6b62c9f33000100018b","4f0bd9a017b8a400010000f6"],"type":0}},{"photo":{"caption":"Homemade.","created_at":"2012-01-31T05:33:26Z","seq":13279880062871966,"url":"http://piictu.s3.amazonaws.com/photos%2F4f277d23c1140000010000fa%2Foriginal","id":"4f277d23c1140000010000fa","stream_id":"4e9bfa49bbb19f0001000051","thumbnail":"http://piictu.s3.amazonaws.com/photos%2F4f277d23c1140000010000fa%2F90x90","stream_title":"Pizza","from":{"avatar_url":"http://cdn.piictu.com/avatars/4e019de2670fd60001002164/90x90","bio":", , , , , ","fullname":"Julie Kim","username":"jkimchi","id":"4e019de2670fd60001002164"},"likes":["4e092dd11073b20001000993","4eada5b477a786000100017b"],"type":0}},{"photo":{"caption":"Cheezy!","created_at":"2012-01-31T05:00:10Z","seq":13279860108188386,"url":"http://piictu.s3.amazonaws.com/photos%2F4f277559ba7e0900010000fc%2Foriginal","id":"4f277559ba7e0900010000fc","stream_id":"4e9bfa49bbb19f0001000051","thumbnail":"http://piictu.s3.amazonaws.com/photos%2F4f277559ba7e0900010000fc%2F90x90","stream_title":"Pizza","from":{"avatar_url":"http://cdn.piictu.com/avatars/4e7213d4f165a5000100003b/90x90_1316577593","bio":null,"fullname":null,"username":"linku","id":"4e7213d4f165a5000100003b"},"likes":["4dfc4f6a3344ca0001001819","4e092dd11073b20001000993","4eada5b477a786000100017b"],"type":0}},{"photo":{"caption":"Pizza casserole!","created_at":"2012-01-31T04:55:30Z","seq":13279857308484752,"url":"http://piictu.s3.amazonaws.com/photos%2F4f27743e7ca9c6000100007c%2Foriginal","id":"4f27743e7ca9c6000100007c","stream_id":"4e9bfa49bbb19f0001000051","thumbnail":"http://piictu.s3.amazonaws.com/photos%2F4f27743e7ca9c6000100007c%2F90x90","stream_title":"Pizza","from":{"avatar_url":"http://cdn.piictu.com/avatars/4ea4e3e989367600010001ea/90x90_1319430071","bio":"Love life. Do good. Live well. ","fullname":"Jean-Pierre Lucar","username":"jlucar","id":"4ea4e3e989367600010001ea"},"likes":["4e693bc5867f9e00010001b0","4e60794443393200010000ba","4e092dd11073b20001000993","4e4dbb10ba7f66000100035f","4eada5b477a786000100017b"],"type":0}}]}}]}
